<?xml version="1.0" encoding="utf-8"?>
<!-- Generator: Adobe Illustrator 23.0.0, SVG Export Plug-In . SVG Version: 6.00 Build 0)  -->
<svg version="1.1" baseProfile="tiny" xmlns="http://www.w3.org/2000/svg" xmlns:xlink="http://www.w3.org/1999/xlink" x="0px"
	 y="0px" viewBox="0 0 24 24" xml:space="preserve">
<g id="Layer_1">
</g>
<g id="Isolation_Mode">
	<g>
		<g id="Combined-Shape-Copy_1_">
			<path fill-rule="evenodd" fill="#FD22EB" d="M2.1,17.9l-1.7-1.7c-0.5-0.5-0.5-1.2,0-1.7l4.2-4.2L6.2,12c0.5,0.5,1.2,0.5,1.7,0
				c0.5-0.5,0.5-1.2,0-1.7L6.2,8.7l8.3-8.3c0.5-0.5,1.2-0.5,1.7,0l1.7,1.7c-0.8,1.1-0.6,2.7,0.4,3.7c1,1,2.6,1.1,3.7,0.4l1.7,1.7
				c0.5,0.5,0.5,1.2,0,1.7l-8.3,8.3l-1.7-1.7c-0.5-0.5-1.2-0.5-1.7,0c-0.5,0.5-0.5,1.2,0,1.7l1.7,1.7l-4.2,4.2
				c-0.5,0.5-1.2,0.5-1.7,0l-1.7-1.7c0.8-1.1,0.6-2.7-0.4-3.7C4.7,17.2,3.2,17.1,2.1,17.9z M8.7,12.8c-0.5,0.5-0.5,1.2,0,1.7
				l0.8,0.8c0.5,0.5,1.2,0.5,1.7,0s0.5-1.2,0-1.7l-0.8-0.8C9.9,12.4,9.1,12.4,8.7,12.8z"/>
		</g>
	</g>
</g>
</svg>
