<?xml version="1.0" encoding="utf-8"?>
<!-- Generator: Adobe Illustrator 23.0.0, SVG Export Plug-In . SVG Version: 6.00 Build 0)  -->
<svg version="1.1" baseProfile="tiny" id="Layer_1" xmlns="http://www.w3.org/2000/svg" xmlns:xlink="http://www.w3.org/1999/xlink"
	 x="0px" y="0px" viewBox="0 0 41 36" xml:space="preserve">
<g>
	<path fill="#CED5E0" d="M40.5,21.8L22.7,0.7c-0.7-0.9-2.1-1-2.9-0.2L7,11.3c-0.9,0.7-1,2.1-0.2,2.9l17.8,21.1
		c0.7,0.9,2.1,1,2.9,0.2l12.7-10.8C41.1,24,41.2,22.7,40.5,21.8z"/>
	
		<rect x="23.4" y="0.3" transform="matrix(0.7635 -0.6458 0.6458 0.7635 -4.3775 20.4586)" fill="#324A5E" width="4.6" height="31.8"/>
	<path fill="#244DE2" d="M31.4,8.6L2.3,8.4c-1.2,0-2.2,1-2.2,2.2L0,26.3c0,1.2,1,2.2,2.2,2.2l29.1,0.2c1.2,0,2.2-1,2.2-2.2l0.1-15.7
		C33.6,9.6,32.6,8.6,31.4,8.6z"/>
	<path fill="#FFFFFF" d="M32,21l0-4.6c-3.4,0-6.1-2.8-6.1-6.2L7.9,10c0,3.4-2.8,6.2-6.2,6.1l0,4.6c3.4,0,6.2,2.8,6.1,6.2l18,0.1
		C25.8,23.7,28.6,21,32,21z"/>
	
		<ellipse transform="matrix(8.299443e-03 -1 1 8.299443e-03 -1.8983 35.1921)" fill="#244DE2" cx="16.8" cy="18.6" rx="6.4" ry="4.6"/>
	<path fill="#FFFFFF" d="M17,21.1l0,0.8h-0.5l0-0.8c-0.5,0-1-0.1-1.4-0.4l0-1c0.1,0.1,0.4,0.2,0.6,0.3c0.3,0.1,0.5,0.2,0.8,0.2
		l0-1.3c-0.6-0.2-1-0.5-1.2-0.7C15.1,18,15,17.7,15,17.3c0-0.4,0.1-0.7,0.4-1c0.3-0.3,0.6-0.4,1.1-0.5l0-0.7h0.5l0,0.7
		c0.5,0,0.9,0.1,1.2,0.3l0,1c-0.3-0.2-0.7-0.3-1.2-0.4l0,1.4c0.5,0.2,0.9,0.4,1.2,0.7c0.2,0.3,0.4,0.6,0.3,0.9c0,0.4-0.1,0.7-0.4,1
		C17.9,20.9,17.5,21.1,17,21.1z M16.5,17.9l0-1.2C16.2,16.8,16,17,16,17.3C16,17.5,16.2,17.7,16.5,17.9z M17,19.2l0,1.1
		c0.4-0.1,0.5-0.2,0.5-0.5C17.6,19.5,17.4,19.3,17,19.2z"/>
</g>
</svg>
