<?xml version="1.0" encoding="utf-8"?>
<!-- Generator: Adobe Illustrator 23.0.0, SVG Export Plug-In . SVG Version: 6.00 Build 0)  -->
<svg version="1.1" baseProfile="tiny" xmlns="http://www.w3.org/2000/svg" xmlns:xlink="http://www.w3.org/1999/xlink" x="0px"
	 y="0px" viewBox="0 0 47 36" xml:space="preserve">
<g id="Layer_1">
</g>
<g id="Isolation_Mode">
	<g>
		<path id="Combined-Shape_3_" fill-rule="evenodd" fill="#244DE2" d="M14.7,0c0.8,2.6,4.5,4.5,8.8,4.5s8-1.9,8.8-4.5h2.3
			c0.2,0,0.3,0,0.5,0h0c0.6,0,1.2,0.3,1.6,0.7L45.9,6c1,0.6,1.4,1.9,0.8,2.9L43.2,15c-0.6,1-1.9,1.4-2.9,0.8l-3-1.8v19.9
			c0,1.2-0.9,2.1-2.1,2.1H11.8c-1.2,0-2.1-0.9-2.1-2.1V14l-3,1.8c-1,0.6-2.3,0.2-2.9-0.8L0.3,8.9C-0.3,7.9,0,6.6,1.1,6l9.2-5.3
			c0.4-0.4,1-0.7,1.6-0.7h0c0.2,0,0.3,0,0.5,0H14.7z"/>
	</g>
</g>
</svg>
